Raw network latency values:
430.0
67.0
385.0
384.0
430.0
380.0
425.0
384.0
373.0
383.0
381.0
383.0
381.0
411.0
379.0
375.0
384.0
384.0
384.0
372.0
392.0
379.0
376.0
376.0
386.0
383.0
380.0
388.0
378.0
386.0
372.0
386.0
385.0
374.0
393.0
371.0
375.0
380.0
379.0
378.0
377.0
399.0
377.0
384.0
386.0
396.0
389.0
378.0
417.0
384.0
373.0
372.0
379.0
377.0
383.0
384.0
382.0
377.0
378.0
377.0
378.0
388.0
389.0
385.0
372.0
385.0
383.0
372.0
381.0
384.0
383.0
392.0
380.0
377.0
376.0
377.0
366.0
381.0
402.0
380.0
398.0
386.0
384.0
383.0
382.0
371.0
371.0
407.0
387.0
378.0
370.0
390.0
378.0
384.0
396.0
385.0
381.0
379.0
387.0
378.0
380.0
387.0
374.0
384.0
372.0
362.0
370.0
378.0
376.0
386.0
387.0
Raw edge_query latency values:
9.0
10.0
10.0
10.0
10.0
9.0
11.0
10.0
1.0
11.0
2.0
4.0
6.0
6.0
5.0
10.0
10.0
1.0
1.0
0.0
10.0
1.0
11.0
10.0
4.0
6.0
7.0
9.0
10.0
1.0
1.0
1.0
1.0
1.0
10.0
10.0
1.0
10.0
10.0
1.0
1.0
1.0
3.0
5.0
5.0
10.0
0.0
0.0
10.0
1.0
1.0
10.0
0.0
1.0
1.0
1.0
11.0
0.0
10.0
1.0
0.0
11.0
10.0
1.0
11.0
1.0
0.0
0.0
10.0
0.0
1.0
1.0
10.0
0.0
1.0
0.0
1.0
11.0
0.0
0.0
0.0
11.0
10.0
10.0
1.0
1.0
0.0
11.0
10.0
10.0
11.0
8.0
10.0
10.0
11.0
11.0
10.0
10.0
1.0
10.0
10.0
10.0
0.0
1.0
10.0
0.0
0.0
10.0
1.0
0.0
0.0
Raw cloud_query latency values:
540.0
435.0
358.0
397.0
346.0
472.0
327.0
326.0
337.0
366.0
352.0
328.0
387.0
316.0
326.0
326.0
357.0
337.0
316.0
388.0
326.0
326.0
315.0
346.0
356.0
366.0
375.0
315.0
316.0
325.0
335.0
326.0
315.0
386.0
315.0
325.0
326.0
344.0
335.0
315.0
367.0
315.0
325.0
316.0
349.0
315.0
315.0
366.0
315.0
315.0
315.0
343.0
326.0
315.0
370.0
326.0
325.0
311.0
334.0
315.0
345.0
369.0
315.0
316.0
315.0
334.0
325.0
316.0
370.0
326.0
315.0
325.0
333.0
315.0
315.0
234.0
339.0
335.0
314.0
353.0
316.0
326.0
325.0
335.0
325.0
325.0
372.0
325.0
315.0
315.0
346.0
315.0
325.0
368.0
315.0
336.0
315.0
335.0
325.0
325.0
372.0
315.0
315.0
325.0
335.0
326.0
315.0
363.0
315.0
325.0
316.0
Raw overall latency values:
979.0
512.0
753.0
791.0
786.0
861.0
763.0
720.0
711.0
760.0
735.0
715.0
774.0
733.0
710.0
711.0
751.0
722.0
701.0
760.0
728.0
706.0
702.0
732.0
746.0
755.0
762.0
712.0
704.0
712.0
708.0
713.0
701.0
761.0
718.0
706.0
702.0
734.0
724.0
694.0
745.0
715.0
705.0
705.0
740.0
721.0
704.0
744.0
742.0
700.0
689.0
725.0
705.0
693.0
754.0
711.0
718.0
688.0
722.0
693.0
723.0
768.0
714.0
702.0
698.0
720.0
708.0
688.0
761.0
710.0
699.0
718.0
723.0
692.0
692.0
611.0
706.0
727.0
716.0
733.0
714.0
723.0
719.0
728.0
708.0
697.0
743.0
743.0
712.0
703.0
727.0
713.0
713.0
762.0
722.0
732.0
706.0
724.0
713.0
713.0
762.0
712.0
689.0
710.0
717.0
688.0
685.0
751.0
692.0
711.0
703.0
Network latency: 380.3873873873874 +- 32.06588988350852
Cloud query latency: 336.1981981981982 +- 33.939737991119124
Edge query latency: 5.315315315315315 +- 4.602335339964982
Overall latency: 721.9009009009009 +- 42.54686292355224
Orig Flowfile sizes: 16652463.801801803 +- 1392713.4441739381
Query Flowfile sizes: 16652463.801801803 +- 1392713.4441739381
Final Flowfile sizes: 14178.954954954956 +- 1880.0930411570178
Total run duration:  72.192
Total data processed:  1762.7940006256104
Actual Thruput:  24.418134982070182  MBps
Expected source throughput:  24.726392871929672  MBps
Edge Query Thruput:  24.7295147598391  MBps
Cloud Query Thruput:  24.74444133387999  MBps
